Date,Qui,Combien de temps
2021-12-12, Thomas, 0h10
2021-12-22, Valentine, 2h00
2021-12-29, Valentine, 1h00
2022-03-02, Thomas, 3h30
2022-03-02, Sandra, 3h30
2022-03-29, Thomas, 1h30
2022-03-29, Sandra, 1h30
2022-03-30, Thomas, 2h00
2022-03-30, Sandra, 2h00
2022-04-14, Thomas, 1h00
2022-04-14, Sandra, 1h00
2022-04-20, Thomas, 1h00
2022-04-23, Thomas, 1h00
2022-04-25, Sandra, 1h00
2022-04-26, Sandra, 1h00
2022-04-27, Sandra, 2h00
2022-05-02, Sandra, 1h00
2022-05-16, Sandra, 1h00
2022-05-18, Thomas, 3h30
2022-07-18, Valentine, 5h00
2022-09-19, Thomas, 3h00
2022-09-20, Thomas, 0h30
2022-10-10, Valentine, 5h00
2022-10-27, Thomas, 0h30
2022-10-28, Thomas, 1h00
2022-10-29, Thomas, 4h00
2022-11-03, Valentine, 10h00
2022-12-22, Thomas, 4h00
2023-02-15, Thomas, 4h00
2023-03-02, Thomas, 1h00
2023-04-01, Valentine, 5h00
2023-04-01, Thomas, 1h00
2023-04-16, Thomas, 3h00
2023-04-17, Thomas, 1h00
2023-04-26, Thomas, 4h00
2023-04-27, Thomas, 1h00
2023-24-26, Valentine, 5h00
